MOI Data Clean-up
…
## [1] "A total of 4641 unique schools are contained in the school dataset"

Calculate School Catchment Lengths

First, join the school and students together into one table based on bsid

Then, join the postal code centroids with lat/long information to each student based on postal.code

Filter the unmatched records from the table

Find any schools with a ratio of ADE to enrolment below 0.8 and above 1.0 between the school and student data, remove these outliers

Calculate the straight line travel distance between student to school based on lat/long information and haverFunction()

## # A tibble: 30 x 5
## # Groups:   postal.code, lat, long [30]
##    postal.code   lat  long retirement.date     n
##    <chr>       <dbl> <dbl>           <int> <int>
##  1 K4A3W4       45.4 -75.5        20160401     1
##  2 K4A3W4       45.4 -75.5        20160401     1
##  3 L0N1J0       44.1 -80.2        20170401     1
##  4 L0N1J0       44.2 -80.2        20170401     1
##  5 L2E6S6       43.0 -79.1        20161101     1
##  6 L2E6S6       43.0 -79.1        20161101     1
##  7 L4M6L9       44.4 -79.7        20160701     1
##  8 L4M6L9       44.4 -79.7        20160701     1
##  9 L4N7K9       44.4 -79.8        20160701     1
## 10 L4N7K9       44.4 -79.8        20160701     1
## # ... with 20 more rows
…
