edu
…
# Clean hhld_df
hhld_tb <- select(hhld_df, hhid, treso_zone, income) %>%
  as.tibble()

# Clean pop_df and join with hhld
pop_tb <- select(pop_df, hhid, treso_zone, hdgree, nocs_11, work_status, occupation, school_status) %>%
  as.tibble() %>%
  left_join(hhld_tb, by = c("hhid" , "treso_zone"))
pop_tb

## # A tibble: 12,649,217 x 8
##     hhid treso_zone hdgree nocs_11 work_status occupation school_status
##    <int>      <int>  <int>   <int> <chr>            <int>         <int>
##  1     1       1001      7       2 full_time            4             1
##  2     2       1001      5       9 full_time            3             1
##  3     3       1001      1      99 unemployed          99             1
##  4     4       1001      5       1 full_time            0             1
##  5     4       1001      8       8 full_time            1             1
##  6     4       1001     99      99 unemployed          99             9
##  7     5       1001      7       5 part_time            1             1
##  8     6       1001      3       6 full_time            6             1
##  9     6       1001      2      12 full_time            9             1
## 10     6       1001      2       9 part_time            6             1
## # ... with 12,649,207 more rows, and 1 more variable: income <int>
…
